…
    ## # A tibble: 364 × 2
    ##    District.Name       avg.gr
    ##    <chr>                <dbl>
    ##  1 A-H-S-T               93.0
    ##  2 Adair-Casey           93.0
    ##  3 Adel-DeSoto-Minburn   93.0
    ##  4 Adel DeSoto Minburn   93.0
    ##  5 AGWSR                 93.0
    ##  6 AHSTW                 93.0
    ##  7 Akron Westfield       93.0
    ##  8 Albia                 93.0
    ##  9 Alburnett             93.0
    ## 10 Algona                93.0
    ## # … with 354 more rows
…
    ## # A tibble: 99 × 2
    ##    County sum.diploma
    ##    <chr>        <dbl>
    ##  1 1              346
    ##  2 10            1142
    ##  3 11            1672
    ##  4 12             770
    ##  5 13             690
    ##  6 14            1122
    ##  7 15            1224
    ##  8 16            1391
    ##  9 17            2425
    ## 10 18             635
    ## # … with 89 more rows
…
